<?xml version="1.0" encoding="UTF-8" ?><?xml-stylesheet type="text/xsl" href="xsl/oaitohtml.xsl"?><OAI-PMH xmlns="http://www.openarchives.org/OAI/2.0/" xmlns:xsi="http://www.w3.org/2001/XMLSchema-instance" xsi:schemaLocation="http://www.openarchives.org/OAI/2.0/ http://www.openarchives.org/OAI/2.0/OAI-PMH.xsd"><responseDate>2015-03-19T18:35:34Z</responseDate><request from="2011-06-01T00:00:00Z" metadataPrefix="oai_dc" until="2011-06-30T23:59:00Z" verb="ListRecords">http://oai.datacite.org/oai</request><ListRecords>
<record><header><identifier>oai:oai.datacite.org:32153</identifier><datestamp>2011-06-08T08:57:11Z</datestamp><setSpec>TIB</setSpec><setSpec>TIB.WDCC</setSpec></header><metadata><oai_dc:dc xmlns:dc="http://purl.org/dc/elements/1.1/"
           xmlns:oai_dc="http://www.openarchives.org/OAI/2.0/oai_dc/"
           xmlns:xsi="http://www.w3.org/2001/XMLSchema-instance"
           xsi:schemaLocation="http://www.openarchives.org/OAI/2.0/oai_dc/ http://www.openarchives.org/OAI/2.0/oai_dc.xsd">
   <dc:title>Climate Simulation with CLM, Climate of the 20th Century run no.3, Data Stream 3: European region MPI-M/MaD</dc:title>
   <dc:creator>Lautenschlager, Michael</dc:creator>
   <dc:creator>Keuler, Klaus</dc:creator>
   <dc:creator>Wunram, Claudia</dc:creator>
   <dc:creator>Keup-Thiel, Elke</dc:creator>
   <dc:creator>Schubert, Martina</dc:creator>
   <dc:creator>Will, Andreas</dc:creator>
   <dc:creator>Rockel, Burkhardt</dc:creator>
   <dc:creator>Boehm, Uwe</dc:creator>
   <dc:publisher>World Data Center for Climate (WDCC)</dc:publisher>
   <dc:date>2011</dc:date>
   <dc:identifier>doi:10.1594/WDCC/CLM_C20_3_D3</dc:identifier>
   <dc:identifier>urn:nbn:de:tib-10.1594/WDCC/CLM_C20_3_D36</dc:identifier>
   <dc:subject>Climate</dc:subject>
   <dc:description>Abstract</dc:description>
   <dc:description>Project: CLM regional climate model runs forced by the global IPCC scenario runs
These regional climate simulations have been funded by the BMBF and computed at DKRZ by the group "Model and Data" of MPI-M, Hamburg, in close cooperation with BTU Cottbus, GKSS Geesthacht and PIK Potsdam. Serving as community model, the climate version of the local model (CLM) of the DWD was used to simulate the regional climate of the 20th century (1960-2000) and 21st century (2001-2100) in Europe. The regional model runs are forced by the global IPCC scenario runs (http://www.grida.no/climate/ipcc/emission/index.htm ) to explore future developments in the European climate on a regional scale.
CLM (see http://clm.gkss.de ) was run in non hydrostatic mode with 0.165 degree horizontal grid resolution and was forced 6 hourly by the output of the global climate model runs with ECHAM5/MPIOM. The climate of the 20th century was simulated by three 20th century realization runs, set off at different initialization times. The climate of the 21st century was modeled with respect to two IPCC-climate scenarios (A1B and B1) with different assumptions regarding the development of global greenhouse gas concentrations.
For storage in and download from this data base, the data has been transformed into time series of single model variables and is provided in two different data streams (referenced as "data stream 2" and "data stream 3"). Data stream 2 is given on a rotated grid with 0.165 deg. spatial resolution (rotated coordinates). Data stream 3 is projected onto a non-rotated grid with 0.2 deg. spatial resolution (usual geographical coordinates). For the data transformation between the respective grids the cdo-routines have been used.
For the original model output (referenced as "data stream 0" and "data stream 1") please contact model(at)dkrz.de for further information.
See http://sga.wdc-climate.de for more details on CLM simulations in the context of the BMBF funding priority "klimazwei", some useful information on handling climate model data and the data access regulations.
Summary: The experiment CLM_C20_3_D3 contains European regional climate simulations of the years 1960-2000 on a regular geographical grid. The data are generated during post processing of the corresponding data stream 2 experiment (CLM_C20_3_D2) of regional climate model runs (CLM non hydrostatic, see http://clm.gkss.de ). The simulations of the 20th century (1960-2000) have been forced by the third (_3_) run of the global 20th century climate (EH5-T63L31_OM-GR1.5L40_20C_3_6H) with observed anthropogenic forcing.
In data stream 3 (_D3) the output variables of CLM data stream 2 and some additionally derived parameters are stored as time series on a regular grid with a horizontal spacing of 0.2 degree. The model parameters have been transformed onto the regular geographical grid by the CDO routines. Please note, that none of the variables has been corrected for topographical differences between the two grids. The model domain of data stream 3 covers the European region starting at 34.6/-10.6 (lat/lon, centre of lower left grid box) with an increment of 0.2 degree. The number of grid points is 177/238 (lat/lon).
For some model variables and additionally derived parameters some statistics on daily, monthly or yearly basis are available. See also http://sga.wdc-climate.de for a list of available parameters.
Please contact sga"at"dkrz.de for data request details.
See http://sga.wdc-climate.de for more details on CLM simulations in the context of the BMBF funding priority "klimazwei", some useful information on handling climate model data and the data access regulations.
The output format is netCDF
Experiment with CLM 2.4.11 on NEC-SX6(hurrikan)
raw data: hpss:/dxul/ut/k/k204095/prism/experiments/C20_3</dc:description>
   <dc:contributor>Lautenschlager, Michael</dc:contributor>
   <dc:language>eng</dc:language>
   <dc:type>Dataset</dc:type>
   <dc:type>Digital</dc:type>
   <dc:format>2302106804800 Bytes</dc:format>
   <dc:format>NetCDF</dc:format>
   <dc:rights>Open access data at least for academic use.</dc:rights>
</oai_dc:dc></metadata></record>
<record><header><identifier>oai:oai.datacite.org:32200</identifier><datestamp>2011-06-20T08:12:41Z</datestamp><setSpec>TIB</setSpec><setSpec>TIB.DAGST</setSpec></header><metadata><oai_dc:dc xmlns:dc="http://purl.org/dc/elements/1.1/"
           xmlns:oai_dc="http://www.openarchives.org/OAI/2.0/oai_dc/"
           xmlns:xsi="http://www.w3.org/2001/XMLSchema-instance"
           xsi:schemaLocation="http://www.openarchives.org/OAI/2.0/oai_dc/ http://www.openarchives.org/OAI/2.0/oai_dc.xsd">
   <dc:title>Online Privacy: Towards Informational Self-Determination on the Internet (Dagstuhl Perspectives Workshop 11061)</dc:title>
   <dc:creator>Fischer-Hübner, Simone</dc:creator>
   <dc:creator>Hoofnagle, Chris</dc:creator>
   <dc:creator>Rannenberg, Kai</dc:creator>
   <dc:creator>Waidner, Michael</dc:creator>
   <dc:creator>Krontiris, Ioannis</dc:creator>
   <dc:creator>Marhöfer, Michael</dc:creator>
   <dc:publisher>Schloss Dagstuhl - Leibniz-Zentrum fuer Informatik GmbH, Wadern/Saarbruecken, Germany</dc:publisher>
   <dc:date>2011</dc:date>
   <dc:identifier>doi:10.4230/DagRep.1.2.1</dc:identifier>
   <dc:subject>Computer Science</dc:subject>
   <dc:subject>000 Computer science, knowledge, general works</dc:subject>
   <dc:description>Other</dc:description>
   <dc:description>
		The Dagstuhl Perspectives Workshop "Online Privacy: Towards Informational Self-Determination on the Internet" (11061)
                has been held in February 6-11, 2011 at Schloss Dagstuhl. 30 participants from academia, public sector, and industry 
                have identified the current status-of-the-art of and challenges for online privacy as well as derived recommendations 
                for improving online privacy. Whereas the  Dagstuhl Manifesto of this workshop concludes the results of the working 
                groups and panel discussions, this article presents the talks of this workshop by their abstracts. 
		</dc:description>
   <dc:contributor>Herbstritt, Marc</dc:contributor>
   <dc:language>eng</dc:language>
   <dc:type>Text</dc:type>
   <dc:type>Article</dc:type>
   <dc:format>15 pages</dc:format>
   <dc:format>application/pdf</dc:format>
   <dc:rights>Creative Commons Attribution-NonCommercial-NoDerivs 3.0 Unported license (CC-BY-NC-ND)</dc:rights>
</oai_dc:dc></metadata></record>
<record><header><identifier>oai:oai.datacite.org:32220</identifier><datestamp>2011-06-28T14:11:08Z</datestamp><setSpec>TIB</setSpec><setSpec>TIB.DAGST</setSpec></header><metadata><oai_dc:dc xmlns:dc="http://purl.org/dc/elements/1.1/"
           xmlns:oai_dc="http://www.openarchives.org/OAI/2.0/oai_dc/"
           xmlns:xsi="http://www.w3.org/2001/XMLSchema-instance"
           xsi:schemaLocation="http://www.openarchives.org/OAI/2.0/oai_dc/ http://www.openarchives.org/OAI/2.0/oai_dc.xsd">
   <dc:title>Theory and Applications of Graph Searching Problems  (GRASTA 2011) (Dagstuhl Seminar 11071)</dc:title>
   <dc:creator>Fedor V., Fomin</dc:creator>
   <dc:creator>Pierre, Fraigniaud</dc:creator>
   <dc:creator>Stephan, Kreutzer</dc:creator>
   <dc:creator>Dimitrios M., Thilikos</dc:creator>
   <dc:publisher>Schloss Dagstuhl - Leibniz-Zentrum fuer Informatik GmbH, Wadern/Saarbruecken, Germany</dc:publisher>
   <dc:date>2011</dc:date>
   <dc:identifier>doi:10.4230/DagRep.1.2.30</dc:identifier>
   <dc:subject>Computer Science</dc:subject>
   <dc:subject>000 Computer science, knowledge, general works</dc:subject>
   <dc:description>Other</dc:description>
   <dc:description>
	From February 14, 2012 to February 18, 2012, the Dagstuhl Seminar 11071 
``Theory and Applications of Graph Searching Problems  (GRASTA 2011)'' 
was held in Schloss Dagstuhl~--~Leibniz Center for Informatics.
During the seminar, participants presented their current
research, and ongoing work and open problems were discussed. Abstracts of
the presentations given during the seminar as well as abstracts of
seminar results and open problems are put together in this paper. The first section describes the seminar topics and goals in general.
The second section contains the abstracts of the talks and the third section
includes the open problems presented during the seminar.
	</dc:description>
   <dc:contributor>Herbstritt, Marc</dc:contributor>
   <dc:language>eng</dc:language>
   <dc:type>Text</dc:type>
   <dc:type>Article</dc:type>
   <dc:format>17 pages</dc:format>
   <dc:format>application/pdf</dc:format>
   <dc:rights>Creative Commons Attribution-NonCommercial-NoDerivs 3.0 Unported license (CC-BY-NC-ND)</dc:rights>
</oai_dc:dc></metadata></record>
<record><header><identifier>oai:oai.datacite.org:32241</identifier><datestamp>2011-06-30T13:24:45Z</datestamp><setSpec>TIB</setSpec><setSpec>TIB.DAGST</setSpec></header><metadata><oai_dc:dc xmlns:dc="http://purl.org/dc/elements/1.1/"
           xmlns:oai_dc="http://www.openarchives.org/OAI/2.0/oai_dc/"
           xmlns:xsi="http://www.w3.org/2001/XMLSchema-instance"
           xsi:schemaLocation="http://www.openarchives.org/OAI/2.0/oai_dc/ http://www.openarchives.org/OAI/2.0/oai_dc.xsd">
   <dc:title>Self-Repairing Programs (Dagstuhl Seminar 11062)</dc:title>
   <dc:creator>Mauro, Pezzé</dc:creator>
   <dc:creator>Martin C., Rinard</dc:creator>
   <dc:creator>Westley, Weimer</dc:creator>
   <dc:creator>Andreas, Zeller</dc:creator>
   <dc:publisher>Schloss Dagstuhl - Leibniz-Zentrum fuer Informatik GmbH, Wadern/Saarbruecken, Germany</dc:publisher>
   <dc:date>2011</dc:date>
   <dc:identifier>doi:10.4230/DagRep.1.2.16</dc:identifier>
   <dc:subject>Computer Science</dc:subject>
   <dc:subject>000 Computer science, knowledge, general works</dc:subject>
   <dc:description>Other</dc:description>
   <dc:description>
	Dagstuhl seminar 11062 ``Self-Repairing Programs'' included 23
participants and organizers from research and industrial communities. 
Self-Repairing Programs are a new and emerging area, and many participants
reported that they initially felt their first research home to be in another 
area, such as testing, program synthesis, debugging, self-healing systems, 
or security. Over the course of the seminar, the participants found 
common ground in discussions of concerns, challenges, and the state of the
art. 
	</dc:description>
   <dc:contributor>Herbstritt, Marc</dc:contributor>
   <dc:language>eng</dc:language>
   <dc:type>Text</dc:type>
   <dc:type>Article</dc:type>
   <dc:format>14 pages</dc:format>
   <dc:format>application/pdf</dc:format>
   <dc:rights>Creative Commons Attribution-NonCommercial-NoDerivs 3.0 Unported license (CC-BY-NC-ND)</dc:rights>
</oai_dc:dc></metadata></record>
<resumptionToken expirationDate="2015-03-19T19:35:34Z" completeListSize="4" cursor="0"></resumptionToken></ListRecords></OAI-PMH>