<?xml version="1.0" encoding="UTF-8"?>
<OAI-PMH xmlns="http://www.openarchives.org/OAI/2.0/" xmlns:xsi="http://www.w3.org/2001/XMLSchema-instance" xsi:schemaLocation="http://www.openarchives.org/OAI/2.0/ http://www.openarchives.org/OAI/2.0/OAI-PMH.xsd">
<responseDate>2015-04-08T22:11:58Z</responseDate>
<request verb="ListRecords" until="2012-03-15" from="2012-03-01" metadataPrefix="arXiv">http://export.arxiv.org/oai2</request>
<ListRecords>
<record>
<header>
 <identifier>oai:arXiv.org:0704.0073</identifier>
 <datestamp>2012-03-06</datestamp>
 <setSpec>math</setSpec>
</header>
<metadata>
 <arXiv xmlns="http://arxiv.org/OAI/arXiv/" xmlns:xsi="http://www.w3.org/2001/XMLSchema-instance" xsi:schemaLocation="http://arxiv.org/OAI/arXiv/ http://arxiv.org/OAI/arXiv.xsd">
 <id>0704.0073</id><created>2007-04-01</created><updated>2012-03-04</updated><authors><author><keyname>Fujino</keyname><forenames>Osamu</forenames></author></authors><title>A transcendental approach to Koll\'ar's injectivity theorem</title><categories>math.AG</categories><comments>22 pages; a minor revision of the preprint circulated in January
  2006, v2: minor modifications, v3: final version, to appear in Osaka J. Math</comments><msc-class>32L10, 32W05</msc-class><license>http://arxiv.org/licenses/nonexclusive-distrib/1.0/</license><abstract>  We treat Koll\'ar's injectivity theorem from the analytic (or differential
geometric) viewpoint. More precisely, we give a curvature condition which
implies Koll\'ar type cohomology injectivity theorems. Our main theorem is
formulated for a compact K\&quot;ahler manifold, but the proof uses the space of
harmonic forms on a Zariski open set with a suitable complete K\&quot;ahler metric.
We need neither covering tricks, desingularizations, nor Leray's spectral
sequence.
</abstract></arXiv>
</metadata>
</record>
<record>
<header>
 <identifier>oai:arXiv.org:0704.0498</identifier>
 <datestamp>2012-03-01</datestamp>
 <setSpec>physics:hep-ex</setSpec>
</header>
<metadata>
 <arXiv xmlns="http://arxiv.org/OAI/arXiv/" xmlns:xsi="http://www.w3.org/2001/XMLSchema-instance" xsi:schemaLocation="http://arxiv.org/OAI/arXiv/ http://arxiv.org/OAI/arXiv.xsd">
 <id>0704.0498</id><created>2007-04-04</created><updated>2007-12-05</updated><authors><author><keyname>Mention</keyname><forenames>Guillaume</forenames><affiliation>DAPNIA</affiliation></author><author><keyname>Lasserre</keyname><forenames>Thierry</forenames><affiliation>DAPNIA, APC</affiliation></author><author><keyname>Motta</keyname><forenames>Dario</forenames><affiliation>DAPNIA</affiliation></author></authors><title>A unified analysis of the reactor neutrino program towards the
  measurement of the theta_13 mixing angle</title><categories>hep-ex</categories><comments>28 pages, 7 figures, 14 tables, one appendix</comments><proxy>ccsd hal-00139903</proxy><journal-ref>Journal of Physics: Conference Series 110, 8 (2008) 082013</journal-ref><doi>10.1088/1742-6596/110/8/082013</doi><abstract>  We present in this article a detailed quantitative discussion of the
measurement of the leptonic mixing angle theta_13 through currently scheduled
reactor neutrino oscillation experiments. We thus focus on Double Chooz (Phase
I &amp; II), Daya Bay (Phase I &amp; II) and RENO experiments. We perform a unified
analysis, including systematics, backgrounds and accurate experimental setup in
each case. Each identified systematic error and background impact has been
assessed on experimental setups following published data when available and
extrapolating from Double Chooz acquired knowledge otherwise. After reviewing
the experiments, we present a new analysis of their sensitivities to sin^2(2
theta_13) and study the impact of the different systematics based on the pulls
approach. Through this generic statistical analysis we discuss the advantages
and drawbacks of each experimental setup.
</abstract></arXiv>
</metadata>
</record>
<record>
<header>
 <identifier>oai:arXiv.org:0704.3093</identifier>
 <datestamp>2012-03-01</datestamp>
 <setSpec>math</setSpec>
</header>
<metadata>
 <arXiv xmlns="http://arxiv.org/OAI/arXiv/" xmlns:xsi="http://www.w3.org/2001/XMLSchema-instance" xsi:schemaLocation="http://arxiv.org/OAI/arXiv/ http://arxiv.org/OAI/arXiv.xsd">
 <id>0704.3093</id><created>2007-04-23</created><updated>2012-02-29</updated><authors><author><keyname>Meilhan</keyname><forenames>Jean-Baptiste</forenames></author><author><keyname>Yasuhara</keyname><forenames>Akira</forenames></author></authors><title>Whitehead double and Milnor invariants</title><categories>math.GT</categories><comments>9 pages, 5 figures. Some minor modifications in this final version</comments><msc-class>57M25, 57M27</msc-class><journal-ref>Osaka J. Math. 48 No. 2 (2011), 371-381</journal-ref><license>http://arxiv.org/licenses/nonexclusive-distrib/1.0/</license><abstract>  We consider the operation of Whitehead double on a component of a link and
study the behavior of Milnor invariants under this operation. We show that this
operation turns a link whose Milnor invariants of length &lt; k are all zero into
a link with vanishing Milnor invariants of length &lt; 2k, and we provide formulas
for the first non-vanishing ones.
  As a consequence, we obtain statements relating the notions of link-homotopy
and self Delta-equivalence via the Whitehead double operation. By using our
result, we show that a Brunnian link L is link-homotopic to the unlink if and
only if a link L with a single component Whitehed doubled is self
Delta-equivalent to the unlink.
</abstract></arXiv>
</metadata>
</record>
<record>
<header>
 <identifier>oai:arXiv.org:0705.1199</identifier>
 <datestamp>2012-03-06</datestamp>
 <setSpec>math</setSpec>
</header>
<metadata>
 <arXiv xmlns="http://arxiv.org/OAI/arXiv/" xmlns:xsi="http://www.w3.org/2001/XMLSchema-instance" xsi:schemaLocation="http://arxiv.org/OAI/arXiv/ http://arxiv.org/OAI/arXiv.xsd">
 <id>0705.1199</id><created>2007-05-08</created><updated>2012-03-04</updated><authors><author><keyname>Fujino</keyname><forenames>Osamu</forenames></author></authors><title>A transcendental approach to Koll\'ar's injectivity theorem II</title><categories>math.AG math.CV</categories><comments>30 pages, v2: added many corollaries, v3: minor modifications, v4:
  minor revision following referee's comments</comments><msc-class>32L10, 32W05</msc-class><license>http://arxiv.org/licenses/nonexclusive-distrib/1.0/</license><abstract>  We treat a relative version of the main theorem in my previous paper: A
transcendental approach to Koll\'ar's injectivity theorem. More explicitly, we
give a curvature condition that implies Koll\'ar type cohomology injectivity
theorems in the relative setting. To carry out this generalization, we use the
Ohsawa-Takegoshi twisted version of Nakano's identity.
</abstract></arXiv>
</metadata>
</record>
<record>
<header>
 <identifier>oai:arXiv.org:0705.1487</identifier>
 <datestamp>2012-03-02</datestamp>
 <setSpec>math</setSpec>
</header>
<metadata>
 <arXiv xmlns="http://arxiv.org/OAI/arXiv/" xmlns:xsi="http://www.w3.org/2001/XMLSchema-instance" xsi:schemaLocation="http://arxiv.org/OAI/arXiv/ http://arxiv.org/OAI/arXiv.xsd">
 <id>0705.1487</id><created>2007-05-10</created><authors><author><keyname>Bandieri</keyname><forenames>Paola</forenames></author><author><keyname>Cristofori</keyname><forenames>Paola</forenames></author><author><keyname>Gagliardi</keyname><forenames>Carlo</forenames></author></authors><title>Nonorientable 3-manifolds admitting coloured triangulations with at most
  30 tetrahedra</title><categories>math.GT</categories><comments>18 pages, 3 figures</comments><msc-class>57Q15, 57M15, 57N10</msc-class><journal-ref>Journal of Knot Theory and its Ramifications 18 (3) (2009),
  381-395</journal-ref><abstract>  We present the census of all non-orientable, closed, connected 3-manifolds
admitting a rigid crystallization with at most 30 vertices. In order to obtain
the above result, we generate, manipulate and compare, by suitable computer
procedures, all rigid non-bipartite crystallizations up to 30 vertices.
</abstract></arXiv>
</metadata>
</record>
<resumptionToken cursor="0" completeListSize="10">797962|6</resumptionToken>
</ListRecords>
</OAI-PMH>
